interactions:
- request:
    body: ''
    headers:
      Accept:
      - '*/*'
      Accept-Encoding:
      - gzip, deflate
      Connection:
      - keep-alive
      Content-Type:
      - application/json
      Host:
      - api.gitguardian.com
      User-Agent:
      - GitGuardian-MCP-Server/1.0
    method: GET
    uri: https://api.gitguardian.com/v1/incidents-for-mcp?page=1&page_size=5&date__le=2025-12-31&date__ge=2024-01-01
  response:
    body:
      string: '{"count": 6146, "page": 1, "next": "https://api.gitguardian.com/exposed/v1/incidents-for-mcp?date__ge=2024-01-01&date__le=2025-12-31&page=2&page_size=5",
        "previous": null, "results": [{"id": 23429983, "account": 8, "criterion":
        "AWS Keys", "date": "2025-12-16T17:22:08Z", "last_trigger_published_at": "2025-12-16T17:22:08Z",
        "last_triggered_at": "2025-12-16T18:22:25.117146Z", "last_trigger_detected_at":
        "2025-12-16T18:22:25.117146Z", "hash": "Bxk/2SaXQPI8yl7xAhB3l3Q9xdra8RHtG7PEK3Wc2BUYBzgKL4Qc71cZRqNcojMG",
        "policy": 1, "ignored": true, "ignored_at": "2025-12-16T18:22:25.122585Z",
        "ignore_reason": "invalid", "ignorer": 491414, "resolved": false, "resolved_at":
        null, "resolver": null, "regression": false, "manual_severity_setter": null,
        "policy_name": "ensure_no_secrets", "policy_display_name": "Secrets detection",
        "ignorer_display_name": "8@bot.gitguardian.com", "ignorer_type": "user", "resolver_display_name":
        "none", "resolver_type": "none", "manual_severity_setter_display_name": "none",
        "manual_severity_setter_type": "none", "status": "IGNORED", "issue_name":
        "AWS IAM Keys", "severity_rule_config": null, "declarative_secret_status":
        "invalid", "assignee": null, "last_presence_check_at": null, "secret": "[REDACTED]",
        "severity": 100, "authors": [{"info": "gg-tools@gitguardianengineering.onmicrosoft.com",
        "name": "gg-tools"}], "user_permission": 7, "is_publicly_shared": false, "feedbacks_count":
        0, "occurrences_presence_seen_count": 2, "occurrences_presence_deleted_count":
        0, "occurrences_presence_should_be_checked": null, "locations_count": 0, "sources":
        [{"name": "Alina''s site (document libraries) / Documents", "type": "sharepoint_online_drive",
        "path": "Alina''s site (document libraries) / Documents", "source_criticality":
        "unknown"}], "custom_tags": [], "vault_metadata": null, "is_vaulted": false,
        "similar_issue_count": 0, "score": 7, "displayed_occurrence": {"id": 230344889,
        "issue": 23429983, "account": 8, "kind": "RLTM", "element": "{\"drive_id\":
        \"b!EFtsUNZdNkyikeU9z6xQzkUMGeBD9bdJo5M6BS3bW67zTZ14Z8npSqr01XpQaXIh\", \"parent_reference_path\":
        \"/drives/b!EFtsUNZdNkyikeU9z6xQzkUMGeBD9bdJo5M6BS3bW67zTZ14Z8npSqr01XpQaXIh/root:\",
        \"file_id\": \"01Y5MCAQY6HCFEWMVSWZCJJ2PCDHL3I2YO\"}", "element_type": "SHAREPOINT_ONEDRIVE_FILE",
        "author_name": "gg-tools", "author_info": "gg-tools@gitguardianengineering.onmicrosoft.com",
        "value": null, "value_hash": "iPtXjz0IchI3JPXhF9r8blhAWpYqtW42SnmwJ/Qm7urxC80Sii0L/QArnKtol4jI",
        "published_at": "2025-12-16T17:22:08Z", "date": "2025-12-16T17:22:08Z", "detected_at":
        "2025-12-16T18:15:30.167037Z", "is_vcs_type": false, "last_detected_at": "2025-12-16T17:22:08Z",
        "last_seen_at": "2025-12-16T17:22:08Z", "data": {}, "url": "https://gitguardianengineering.sharepoint.com/sites/Alina%27ssite/Shared%20Documents/small_with_secret.csv.gz",
        "source": {"id": 23920761, "url": "https://gitguardianengineering.sharepoint.com/sites/Alina%27ssite/Shared%20Documents",
        "type": "sharepoint_online_drive", "display_name": "Alina''s site (document
        libraries) / Documents", "visibility": "private", "monitored": true, "source_criticality":
        "unknown", "deleted_at": null, "default_branch": null}, "regression": false,
        "content": 112471538, "secrets_engine_version": "2.153.1", "matches": [{"name":
        "client_id", "string_matched": "[REDACTED]", "indice_start": 500, "indice_end":
        520, "pre_line_start": null, "pre_line_end": null, "post_line_start": null,
        "post_line_end": null}, {"name": "client_secret", "string_matched": "[REDACTED]",
        "indice_start": 546, "indice_end": 586, "pre_line_start": null, "pre_line_end":
        null, "post_line_start": null, "post_line_end": null}], "most_sensitive_match_name":
        "client_secret", "insights": [], "filepath": "small_with_secret.csv.gz", "filename":
        "small_with_secret.csv.gz", "presence": "visible", "last_presence_seen_at":
        "2026-01-12T15:33:36.829567Z", "last_presence_check_at": "2026-01-12T15:33:36.829567Z",
        "first_presence_deleted_at": null, "seen_in_default_branch": null, "change_type":
        null, "full_tags": []}, "has_dropped_occurrences": false, "tags": ["FROM_HISTORICAL_SCAN"],
        "public_exposure": {"source_publicly_visible": false, "public_incident_linked":
        false, "leaked_outside_perimeter": false}, "occurrences_count": 2}, {"id":
        26805045, "account": 8, "criterion": "Generic High Entropy Secret", "date":
        "2025-12-14T19:04:50Z", "last_trigger_published_at": "2025-12-14T19:04:50Z",
        "last_triggered_at": "2026-02-04T13:38:51.989716Z", "last_trigger_detected_at":
        "2026-02-04T13:38:51.989716Z", "hash": "BeW5KalXvUOy4RWl94KMO3C7iql7YdgzmiUOxsSbIvEcfisXp+KkPCNpyNbtXqJM",
        "policy": 1, "ignored": false, "ignored_at": null, "ignore_reason": null,
        "ignorer": null, "resolved": false, "resolved_at": null, "resolver": null,
        "regression": false, "manual_severity_setter": null, "policy_name": "ensure_no_secrets",
        "policy_display_name": "Secrets detection", "ignorer_display_name": "none",
        "ignorer_type": "none", "resolver_display_name": "none", "resolver_type":
        "none", "manual_severity_setter_display_name": "none", "manual_severity_setter_type":
        "none", "status": "TRIGGERED", "issue_name": "Generic High Entropy Secret",
        "severity_rule_config": null, "declarative_secret_status": null, "assignee":
        null, "last_presence_check_at": null, "secret": "[REDACTED]", "severity":
        100, "authors": [{"info": "romain.jouhannet@gitguardian.com", "name": "Romain
        Jouhannet"}], "user_permission": 7, "is_publicly_shared": false, "feedbacks_count":
        0, "occurrences_presence_seen_count": 2, "occurrences_presence_deleted_count":
        0, "occurrences_presence_should_be_checked": null, "locations_count": 0, "sources":
        [{"name": "RomainJ / demo", "type": "gl_project", "path": "romain/demo", "source_criticality":
        "unknown"}], "custom_tags": [], "vault_metadata": null, "is_vaulted": false,
        "similar_issue_count": 0, "score": 52, "displayed_occurrence": {"id": 241287721,
        "issue": 26805045, "account": 8, "kind": "HIST", "element": "fd56543c0a2594907b36ab59c885bd1d536a4957",
        "element_type": "GIT_COMMIT", "author_name": "Romain Jouhannet", "author_info":
        "romain.jouhannet@gitguardian.com", "value": null, "value_hash": "WE9RdxAVX6gbgtYpkWDapCSNR52nN4Dtf6NepeWQWpH1122NxY2lk0p41XlD3KA6",
        "published_at": "2025-12-14T19:04:50Z", "date": "2025-12-14T19:04:50Z", "detected_at":
        "2026-02-04T13:38:46.386256Z", "is_vcs_type": true, "last_detected_at": "2025-12-14T19:04:50Z",
        "last_seen_at": "2025-12-14T19:04:50Z", "data": {}, "url": "https://gitlab-01.aws-qa-gitguardian.com/romain/demo/commit/fd56543c0a2594907b36ab59c885bd1d536a4957#2ec5fbc02574c84a8b8e3dcae097ffd0be069994_None_20",
        "source": {"id": 23485702, "url": "https://gitlab-01.aws-qa-gitguardian.com/romain/demo",
        "type": "gl_project", "display_name": "RomainJ / demo", "visibility": "private",
        "monitored": true, "source_criticality": "unknown", "deleted_at": null, "default_branch":
        "main"}, "regression": false, "content": 129708166, "secrets_engine_version":
        "2.155.4", "matches": [{"name": "apikey", "string_matched": "[REDACTED]",
        "indice_start": 901, "indice_end": 963, "pre_line_start": null, "pre_line_end":
        null, "post_line_start": 20, "post_line_end": 20}], "most_sensitive_match_name":
        "apikey", "insights": [], "filepath": "spinetail.py", "filename": "spinetail.py",
        "presence": "visible", "last_presence_seen_at": "2026-02-04T13:38:52.180505Z",
        "last_presence_check_at": "2026-02-04T13:38:52.180505Z", "first_presence_deleted_at":
        null, "seen_in_default_branch": null, "change_type": "addition", "full_tags":
        [{"type": "FROM_HISTORICAL_SCAN", "metadata": null}]}, "has_dropped_occurrences":
        false, "tags": ["FROM_HISTORICAL_SCAN"], "public_exposure": {"source_publicly_visible":
        false, "public_incident_linked": false, "leaked_outside_perimeter": false},
        "occurrences_count": 2}, {"id": 26805047, "account": 8, "criterion": "Google
        API Key", "date": "2025-12-14T19:04:50Z", "last_trigger_published_at": "2025-12-14T19:04:50Z",
        "last_triggered_at": "2026-02-04T13:38:51.992367Z", "last_trigger_detected_at":
        "2026-02-04T13:38:51.992367Z", "hash": "RiwXqKF/MH9aVvqy3SHVyjungan9+gseDRXLFLEeYlR4tCfeiwQ5Z8PP16EaJtIX",
        "policy": 1, "ignored": true, "ignored_at": "2026-02-04T13:38:52.095775Z",
        "ignore_reason": "invalid", "ignorer": 491414, "resolved": false, "resolved_at":
        null, "resolver": null, "regression": false, "manual_severity_setter": null,
        "policy_name": "ensure_no_secrets", "policy_display_name": "Secrets detection",
        "ignorer_display_name": "8@bot.gitguardian.com", "ignorer_type": "user", "resolver_display_name":
        "none", "resolver_type": "none", "manual_severity_setter_display_name": "none",
        "manual_severity_setter_type": "none", "status": "IGNORED", "issue_name":
        "Google API Key", "severity_rule_config": null, "declarative_secret_status":
        "invalid", "assignee": null, "last_presence_check_at": null, "secret": "[REDACTED]",
        "severity": 100, "authors": [{"info": "gim+dev@gitguardian.com", "name": "dev"},
        {"info": "romain.jouhannet@gitguardian.com", "name": "Romain Jouhannet"}],
        "user_permission": 7, "is_publicly_shared": false, "feedbacks_count": 0, "occurrences_presence_seen_count":
        6, "occurrences_presence_deleted_count": 0, "occurrences_presence_should_be_checked":
        null, "locations_count": 0, "sources": [{"name": "RomainJ / demo", "type":
        "gl_project", "path": "romain/demo", "source_criticality": "unknown"}], "custom_tags":
        [], "vault_metadata": null, "is_vaulted": false, "similar_issue_count": 3,
        "score": 0, "displayed_occurrence": {"id": 241287716, "issue": 26805047, "account":
        8, "kind": "HIST", "element": "fd56543c0a2594907b36ab59c885bd1d536a4957",
        "element_type": "GIT_COMMIT", "author_name": "Romain Jouhannet", "author_info":
        "romain.jouhannet@gitguardian.com", "value": null, "value_hash": "SJwViF0/DsMYa+t+dBEiZx2csnwTDMqh1ro0cKTbBj5LYGqhjI9qf5LnmIYCvOW2",
        "published_at": "2025-12-14T19:04:50Z", "date": "2025-12-14T19:04:50Z", "detected_at":
        "2026-02-04T13:38:46.386256Z", "is_vcs_type": true, "last_detected_at": "2025-12-14T19:04:50Z",
        "last_seen_at": "2025-12-14T19:04:50Z", "data": {}, "url": "https://gitlab-01.aws-qa-gitguardian.com/romain/demo/commit/fd56543c0a2594907b36ab59c885bd1d536a4957#2ec5fbc02574c84a8b8e3dcae097ffd0be069994_None_12",
        "source": {"id": 23485702, "url": "https://gitlab-01.aws-qa-gitguardian.com/romain/demo",
        "type": "gl_project", "display_name": "RomainJ / demo", "visibility": "private",
        "monitored": true, "source_criticality": "unknown", "deleted_at": null, "default_branch":
        "main"}, "regression": false, "content": 129708166, "secrets_engine_version":
        "2.155.4", "matches": [{"name": "apikey", "string_matched": "[REDACTED]",
        "indice_start": 483, "indice_end": 522, "pre_line_start": null, "pre_line_end":
        null, "post_line_start": 12, "post_line_end": 12}], "most_sensitive_match_name":
        "apikey", "insights": [], "filepath": "spinetail.py", "filename": "spinetail.py",
        "presence": "visible", "last_presence_seen_at": "2026-02-04T13:38:52.180505Z",
        "last_presence_check_at": "2026-02-04T13:38:52.180505Z", "first_presence_deleted_at":
        null, "seen_in_default_branch": null, "change_type": "addition", "full_tags":
        [{"type": "FROM_HISTORICAL_SCAN", "metadata": null}]}, "has_dropped_occurrences":
        false, "tags": ["FROM_HISTORICAL_SCAN"], "public_exposure": {"source_publicly_visible":
        false, "public_incident_linked": false, "leaked_outside_perimeter": false},
        "occurrences_count": 6}, {"id": 26805048, "account": 8, "criterion": "MongoDB
        URI", "date": "2025-12-14T19:04:50Z", "last_trigger_published_at": "2025-12-14T19:04:50Z",
        "last_triggered_at": "2026-02-04T13:38:51.992800Z", "last_trigger_detected_at":
        "2026-02-04T13:38:51.992800Z", "hash": "U0UpslQfYEt5UuEASStW1TUUjSlPPFgH/4x3zFEikLa/81d7feuh40iUuZt2nZY1",
        "policy": 1, "ignored": false, "ignored_at": null, "ignore_reason": null,
        "ignorer": null, "resolved": false, "resolved_at": null, "resolver": null,
        "regression": false, "manual_severity_setter": null, "policy_name": "ensure_no_secrets",
        "policy_display_name": "Secrets detection", "ignorer_display_name": "none",
        "ignorer_type": "none", "resolver_display_name": "none", "resolver_type":
        "none", "manual_severity_setter_display_name": "none", "manual_severity_setter_type":
        "none", "status": "TRIGGERED", "issue_name": "MongoDB Credentials", "severity_rule_config":
        {"id": 7276, "gg_created_at": "2025-03-18T08:57:54.146841Z", "gg_updated_at":
        "2025-03-18T08:57:54.146844Z", "index": 15, "severity": 20, "rule": {"id":
        516, "gg_created_at": "2025-03-18T08:57:54.142529Z", "gg_updated_at": "2025-03-18T08:57:54.142532Z",
        "name": "Specific Database Credentials", "description": "Specific Database
        Credentials", "json_rule": {"operator": "AND", "args": [{"operator": "EQ",
        "arg1": {"path": "issue.secret.detector.metadata.category", "default": null},
        "arg2": {"value": "data_storage"}}, {"operator": "EQ", "arg1": {"path": "issue.secret.detector.nature",
        "default": null}, "arg2": {"value": "specific"}}]}, "is_global": true, "scope":
        "private", "author": null}}, "declarative_secret_status": null, "assignee":
        null, "last_presence_check_at": null, "secret": "[REDACTED]", "severity":
        100, "authors": [{"info": "romain.jouhannet@gitguardian.com", "name": "Romain
        Jouhannet"}], "user_permission": 7, "is_publicly_shared": false, "feedbacks_count":
        0, "occurrences_presence_seen_count": 2, "occurrences_presence_deleted_count":
        0, "occurrences_presence_should_be_checked": null, "locations_count": 0, "sources":
        [{"name": "RomainJ / demo", "type": "gl_project", "path": "romain/demo", "source_criticality":
        "unknown"}], "custom_tags": [], "vault_metadata": null, "is_vaulted": false,
        "similar_issue_count": 11, "score": 49, "displayed_occurrence": {"id": 241287710,
        "issue": 26805048, "account": 8, "kind": "HIST", "element": "fd56543c0a2594907b36ab59c885bd1d536a4957",
        "element_type": "GIT_COMMIT", "author_name": "Romain Jouhannet", "author_info":
        "romain.jouhannet@gitguardian.com", "value": null, "value_hash": "MaZxnaQEbYuJeCHedgQlQjI92lEcfqKmpHQiHzv49fT/ENa8G+Sw9gDmAbwsAhz4",
        "published_at": "2025-12-14T19:04:50Z", "date": "2025-12-14T19:04:50Z", "detected_at":
        "2026-02-04T13:38:46.386256Z", "is_vcs_type": true, "last_detected_at": "2025-12-14T19:04:50Z",
        "last_seen_at": "2025-12-14T19:04:50Z", "data": {}, "url": "https://gitlab-01.aws-qa-gitguardian.com/romain/demo/commit/fd56543c0a2594907b36ab59c885bd1d536a4957#2ec5fbc02574c84a8b8e3dcae097ffd0be069994_None_8",
        "source": {"id": 23485702, "url": "https://gitlab-01.aws-qa-gitguardian.com/romain/demo",
        "type": "gl_project", "display_name": "RomainJ / demo", "visibility": "private",
        "monitored": true, "source_criticality": "unknown", "deleted_at": null, "default_branch":
        "main"}, "regression": false, "content": 129708166, "secrets_engine_version":
        "2.155.4", "matches": [{"name": "connection_uri", "string_matched": "[REDACTED]",
        "indice_start": 232, "indice_end": 323, "pre_line_start": null, "pre_line_end":
        null, "post_line_start": 8, "post_line_end": 8}, {"name": "scheme", "string_matched":
        "[REDACTED]", "indice_start": 232, "indice_end": 243, "pre_line_start": null,
        "pre_line_end": null, "post_line_start": 8, "post_line_end": 8}, {"name":
        "username", "string_matched": "[REDACTED]", "indice_start": 246, "indice_end":
        254, "pre_line_start": null, "pre_line_end": null, "post_line_start": 8, "post_line_end":
        8}, {"name": "password", "string_matched": "[REDACTED]", "indice_start": 255,
        "indice_end": 267, "pre_line_start": null, "pre_line_end": null, "post_line_start":
        8, "post_line_end": 8}, {"name": "host", "string_matched": "[REDACTED]", "indice_start":
        268, "indice_end": 288, "pre_line_start": null, "pre_line_end": null, "post_line_start":
        8, "post_line_end": 8}, {"name": "database", "string_matched": "[REDACTED]",
        "indice_start": 289, "indice_end": 295, "pre_line_start": null, "pre_line_end":
        null, "post_line_start": 8, "post_line_end": 8}, {"name": "query", "string_matched":
        "[REDACTED]", "indice_start": 296, "indice_end": 323, "pre_line_start": null,
        "pre_line_end": null, "post_line_start": 8, "post_line_end": 8}], "most_sensitive_match_name":
        "password", "insights": [], "filepath": "spinetail.py", "filename": "spinetail.py",
        "presence": "visible", "last_presence_seen_at": "2026-02-04T13:38:52.180505Z",
        "last_presence_check_at": "2026-02-04T13:38:52.180505Z", "first_presence_deleted_at":
        null, "seen_in_default_branch": null, "change_type": "addition", "full_tags":
        [{"type": "FROM_HISTORICAL_SCAN", "metadata": null}]}, "has_dropped_occurrences":
        false, "tags": ["FROM_HISTORICAL_SCAN"], "public_exposure": {"source_publicly_visible":
        false, "public_incident_linked": false, "leaked_outside_perimeter": false},
        "occurrences_count": 2}, {"id": 23316251, "account": 8, "criterion": "Figma
        Personal Access Token", "date": "2025-12-11T10:20:33Z", "last_trigger_published_at":
        "2025-12-11T10:20:33Z", "last_triggered_at": "2025-12-12T13:42:33.638019Z",
        "last_trigger_detected_at": "2025-12-12T13:42:33.638019Z", "hash": "GE2F9myvPOY9d2s6Nfmk51d56pRf/vuWKlf6ibIMmsAAR5GdnkQX790L2ERUA9iz",
        "policy": 1, "ignored": true, "ignored_at": "2025-12-12T13:42:33.647628Z",
        "ignore_reason": "invalid", "ignorer": 491414, "resolved": false, "resolved_at":
        null, "resolver": null, "regression": false, "manual_severity_setter": null,
        "policy_name": "ensure_no_secrets", "policy_display_name": "Secrets detection",
        "ignorer_display_name": "8@bot.gitguardian.com", "ignorer_type": "user", "resolver_display_name":
        "none", "resolver_type": "none", "manual_severity_setter_display_name": "none",
        "manual_severity_setter_type": "none", "status": "IGNORED", "issue_name":
        "Figma Personal Access Token", "severity_rule_config": null, "declarative_secret_status":
        "invalid", "assignee": null, "last_presence_check_at": null, "secret": "[REDACTED]",
        "severity": 100, "authors": [{"info": "", "name": ""}], "user_permission":
        7, "is_publicly_shared": false, "feedbacks_count": 0, "occurrences_presence_seen_count":
        1, "occurrences_presence_deleted_count": 0, "occurrences_presence_should_be_checked":
        null, "locations_count": 0, "sources": [{"name": "nriv/agar", "type": "azure_cr_repository",
        "path": "nriv/agar", "source_criticality": "unknown"}], "custom_tags": [],
        "vault_metadata": null, "is_vaulted": false, "similar_issue_count": 0, "score":
        3, "displayed_occurrence": {"id": 229731464, "issue": 23316251, "account":
        8, "kind": "HIST", "element": "{\"repository_name\": \"nriv/agar\", \"file_path\":
        \"main.py\"}", "element_type": "CONTAINER_LAYER", "author_name": "", "author_info":
        "", "value": null, "value_hash": "OsUesR0NJgwb7nf5Kfb6ySEtDSjDPObGt6O9YVAGqq+VsBrAMp3Kne4OXFGvqCq/",
        "published_at": "2025-12-11T10:20:33Z", "date": "2025-12-11T10:20:33Z", "detected_at":
        "2025-12-12T13:42:26.560038Z", "is_vcs_type": false, "last_detected_at": "2025-12-11T10:20:33Z",
        "last_seen_at": "2025-12-11T10:20:33Z", "data": {"blob_sha": "sha256:245f3fc099b23fceb1a7fecd560f72d771d78b1fbc25f50aba1e22ee4da2f5e8",
        "image_tag": "v1bis", "manifest_sha": "sha256:a5c5c93bb3e7d6d54cf3ebbc9939122eac28366e5dfdad0083f519ca5b32d287"},
        "url": "https://portal.azure.com/#browse/Microsoft.ContainerRegistry%2Fregistries",
        "source": {"id": 24713021, "url": "https://portal.azure.com/#browse/Microsoft.ContainerRegistry%2Fregistries",
        "type": "azure_cr_repository", "display_name": "nriv/agar", "visibility":
        "private", "monitored": true, "source_criticality": "unknown", "deleted_at":
        null, "default_branch": null}, "regression": false, "content": 111314743,
        "secrets_engine_version": "2.153.0", "matches": [{"name": "apikey", "string_matched":
        "[REDACTED]", "indice_start": 10, "indice_end": 55, "pre_line_start": null,
        "pre_line_end": null, "post_line_start": null, "post_line_end": null}], "most_sensitive_match_name":
        "apikey", "insights": [], "filepath": "main.py", "filename": "main.py", "presence":
        "visible", "last_presence_seen_at": "2025-12-12T13:42:33.744261Z", "last_presence_check_at":
        "2025-12-12T13:42:33.744261Z", "first_presence_deleted_at": null, "seen_in_default_branch":
        null, "change_type": null, "full_tags": [{"type": "FROM_HISTORICAL_SCAN",
        "metadata": null}]}, "has_dropped_occurrences": false, "tags": ["FROM_HISTORICAL_SCAN"],
        "public_exposure": {"source_publicly_visible": false, "public_incident_linked":
        false, "leaked_outside_perimeter": false}, "occurrences_count": 1}]}'
    headers:
      access-control-expose-headers:
      - X-App-Version
      allow:
      - GET, HEAD, OPTIONS
      content-length:
      - '25363'
      content-security-policy:
      - frame-ancestors 'none'
      content-type:
      - application/json
      cross-origin-opener-policy:
      - same-origin
      date:
      - Wed, 04 Feb 2026 15:37:25 GMT
      referrer-policy:
      - strict-origin-when-cross-origin
      server:
      - istio-envoy
      strict-transport-security:
      - max-age=31536000; includeSubDomains
      vary:
      - Cookie
      x-app-version:
      - v2.384.0
      x-content-type-options:
      - nosniff
      x-envoy-upstream-service-time:
      - '372'
      x-frame-options:
      - DENY
      x-secrets-engine-version:
      - 2.155.4
      x-xss-protection:
      - 1; mode=block
    status:
      code: 200
      message: OK
version: 1
