interactions:
- request:
    body: ''
    headers:
      Accept:
      - '*/*'
      Accept-Encoding:
      - gzip, deflate
      Connection:
      - keep-alive
      Content-Type:
      - application/json
      Host:
      - api.gitguardian.com
      User-Agent:
      - GitGuardian-MCP-Server/1.0
    method: GET
    uri: https://api.gitguardian.com/v1/incidents-for-mcp?page=1&page_size=5&severity__in=10%2C20
  response:
    body:
      string: '{"count": 5387, "page": 1, "next": "https://api.gitguardian.com/exposed/v1/incidents-for-mcp?page=2&page_size=5&severity__in=10%2C20",
        "previous": null, "results": [{"id": 26805043, "account": 8, "criterion":
        "MongoDB URI", "date": "2026-02-04T12:40:14Z", "last_trigger_published_at":
        "2026-02-04T12:40:14Z", "last_triggered_at": "2026-02-04T13:38:51.987022Z",
        "last_trigger_detected_at": "2026-02-04T13:38:51.987022Z", "hash": "/7fR6f5kCJxcKOBY7aGaXANERrgmNFFGl2msVGfVPMEzhnM4feuh40iUuZt2nZY1",
        "policy": 1, "ignored": false, "ignored_at": null, "ignore_reason": null,
        "ignorer": null, "resolved": false, "resolved_at": null, "resolver": null,
        "regression": false, "manual_severity_setter": null, "policy_name": "ensure_no_secrets",
        "policy_display_name": "Secrets detection", "ignorer_display_name": "none",
        "ignorer_type": "none", "resolver_display_name": "none", "resolver_type":
        "none", "manual_severity_setter_display_name": "none", "manual_severity_setter_type":
        "none", "status": "TRIGGERED", "issue_name": "MongoDB Credentials", "severity_rule_config":
        {"id": 7276, "gg_created_at": "2025-03-18T08:57:54.146841Z", "gg_updated_at":
        "2025-03-18T08:57:54.146844Z", "index": 15, "severity": 20, "rule": {"id":
        516, "gg_created_at": "2025-03-18T08:57:54.142529Z", "gg_updated_at": "2025-03-18T08:57:54.142532Z",
        "name": "Specific Database Credentials", "description": "Specific Database
        Credentials", "json_rule": {"operator": "AND", "args": [{"operator": "EQ",
        "arg1": {"path": "issue.secret.detector.metadata.category", "default": null},
        "arg2": {"value": "data_storage"}}, {"operator": "EQ", "arg1": {"path": "issue.secret.detector.nature",
        "default": null}, "arg2": {"value": "specific"}}]}, "is_global": true, "scope":
        "private", "author": null}}, "declarative_secret_status": null, "assignee":
        null, "last_presence_check_at": null, "secret": "[REDACTED]", "severity":
        100, "authors": [{"info": "romain.jouhannet@gitguardian.com", "name": "Romain
        Jouhannet"}], "user_permission": 7, "is_publicly_shared": false, "feedbacks_count":
        0, "occurrences_presence_seen_count": 1, "occurrences_presence_deleted_count":
        0, "occurrences_presence_should_be_checked": null, "locations_count": 0, "sources":
        [{"name": "RomainJ / demo", "type": "gl_project", "path": "romain/demo", "source_criticality":
        "unknown"}], "custom_tags": [], "vault_metadata": null, "is_vaulted": false,
        "similar_issue_count": 0, "score": 49, "displayed_occurrence": {"id": 241287706,
        "issue": 26805043, "account": 8, "kind": "HIST", "element": "5198e8b1dbfceb42a733e2f96a8c737fa8bc5ee8",
        "element_type": "GIT_COMMIT", "author_name": "Romain Jouhannet", "author_info":
        "romain.jouhannet@gitguardian.com", "value": null, "value_hash": "I7HWuf4N7z4BUl5YTbmxXGsCjjQ/IlAjXcso7ELZ+5LYJl5p8C+H70xNQGAF2tHA",
        "published_at": "2026-02-04T12:40:14Z", "date": "2026-02-04T12:40:14Z", "detected_at":
        "2026-02-04T13:38:46.386256Z", "is_vcs_type": true, "last_detected_at": "2026-02-04T12:40:14Z",
        "last_seen_at": "2026-02-04T12:40:14Z", "data": {}, "url": "https://gitlab-01.aws-qa-gitguardian.com/romain/demo/commit/5198e8b1dbfceb42a733e2f96a8c737fa8bc5ee8#8b00584865b28d12f057cc2064a51a05b33603f1_None_8",
        "source": {"id": 23485702, "url": "https://gitlab-01.aws-qa-gitguardian.com/romain/demo",
        "type": "gl_project", "display_name": "RomainJ / demo", "visibility": "private",
        "monitored": true, "source_criticality": "unknown", "deleted_at": null, "default_branch":
        "main"}, "regression": false, "content": 129708170, "secrets_engine_version":
        "2.155.4", "matches": [{"name": "connection_uri", "string_matched": "[REDACTED]",
        "indice_start": 232, "indice_end": 323, "pre_line_start": null, "pre_line_end":
        null, "post_line_start": 8, "post_line_end": 8}, {"name": "scheme", "string_matched":
        "[REDACTED]", "indice_start": 232, "indice_end": 243, "pre_line_start": null,
        "pre_line_end": null, "post_line_start": 8, "post_line_end": 8}, {"name":
        "username", "string_matched": "[REDACTED]", "indice_start": 246, "indice_end":
        254, "pre_line_start": null, "pre_line_end": null, "post_line_start": 8, "post_line_end":
        8}, {"name": "password", "string_matched": "[REDACTED]", "indice_start": 255,
        "indice_end": 267, "pre_line_start": null, "pre_line_end": null, "post_line_start":
        8, "post_line_end": 8}, {"name": "host", "string_matched": "[REDACTED]", "indice_start":
        268, "indice_end": 288, "pre_line_start": null, "pre_line_end": null, "post_line_start":
        8, "post_line_end": 8}, {"name": "database", "string_matched": "[REDACTED]",
        "indice_start": 289, "indice_end": 295, "pre_line_start": null, "pre_line_end":
        null, "post_line_start": 8, "post_line_end": 8}, {"name": "query", "string_matched":
        "[REDACTED]", "indice_start": 296, "indice_end": 323, "pre_line_start": null,
        "pre_line_end": null, "post_line_start": 8, "post_line_end": 8}], "most_sensitive_match_name":
        "password", "insights": [], "filepath": "bluethroat.py", "filename": "bluethroat.py",
        "presence": "visible", "last_presence_seen_at": "2026-02-04T13:38:52.180505Z",
        "last_presence_check_at": "2026-02-04T13:38:52.180505Z", "first_presence_deleted_at":
        null, "seen_in_default_branch": null, "change_type": "addition", "full_tags":
        [{"type": "FROM_HISTORICAL_SCAN", "metadata": null}]}, "has_dropped_occurrences":
        false, "tags": ["FROM_HISTORICAL_SCAN"], "public_exposure": {"source_publicly_visible":
        false, "public_incident_linked": false, "leaked_outside_perimeter": false},
        "occurrences_count": 1}, {"id": 26805044, "account": 8, "criterion": "MongoDB
        URI", "date": "2026-01-26T13:46:06Z", "last_trigger_published_at": "2026-01-26T13:46:06Z",
        "last_triggered_at": "2026-02-04T13:38:51.988904Z", "last_trigger_detected_at":
        "2026-02-04T13:38:51.988904Z", "hash": "8qhQemKmiS/Am6ESHIGDwqPZn9s9ntwfojgd4GNyXYj+jIKRfeuh40iUuZt2nZY1",
        "policy": 1, "ignored": false, "ignored_at": null, "ignore_reason": null,
        "ignorer": null, "resolved": false, "resolved_at": null, "resolver": null,
        "regression": false, "manual_severity_setter": null, "policy_name": "ensure_no_secrets",
        "policy_display_name": "Secrets detection", "ignorer_display_name": "none",
        "ignorer_type": "none", "resolver_display_name": "none", "resolver_type":
        "none", "manual_severity_setter_display_name": "none", "manual_severity_setter_type":
        "none", "status": "TRIGGERED", "issue_name": "MongoDB Credentials", "severity_rule_config":
        {"id": 7276, "gg_created_at": "2025-03-18T08:57:54.146841Z", "gg_updated_at":
        "2025-03-18T08:57:54.146844Z", "index": 15, "severity": 20, "rule": {"id":
        516, "gg_created_at": "2025-03-18T08:57:54.142529Z", "gg_updated_at": "2025-03-18T08:57:54.142532Z",
        "name": "Specific Database Credentials", "description": "Specific Database
        Credentials", "json_rule": {"operator": "AND", "args": [{"operator": "EQ",
        "arg1": {"path": "issue.secret.detector.metadata.category", "default": null},
        "arg2": {"value": "data_storage"}}, {"operator": "EQ", "arg1": {"path": "issue.secret.detector.nature",
        "default": null}, "arg2": {"value": "specific"}}]}, "is_global": true, "scope":
        "private", "author": null}}, "declarative_secret_status": null, "assignee":
        null, "last_presence_check_at": null, "secret": "[REDACTED]", "severity":
        100, "authors": [{"info": "gim+dev@gitguardian.com", "name": "dev"}], "user_permission":
        7, "is_publicly_shared": false, "feedbacks_count": 0, "occurrences_presence_seen_count":
        4, "occurrences_presence_deleted_count": 0, "occurrences_presence_should_be_checked":
        null, "locations_count": 0, "sources": [{"name": "RomainJ / demo", "type":
        "gl_project", "path": "romain/demo", "source_criticality": "unknown"}], "custom_tags":
        [], "vault_metadata": null, "is_vaulted": false, "similar_issue_count": 1,
        "score": 49, "displayed_occurrence": {"id": 241287735, "issue": 26805044,
        "account": 8, "kind": "HIST", "element": "7c8a5a83a8529f3942f648e6a79ae21b08afdb07",
        "element_type": "GIT_COMMIT", "author_name": "dev", "author_info": "gim+dev@gitguardian.com",
        "value": null, "value_hash": "fmih/YlCd4UrrB/ETqBfjzlVfSG7RBhEUvyvat2FzYNAy8zVUK4iCeYsKrlknGkQ",
        "published_at": "2026-01-26T13:46:06Z", "date": "2026-01-26T13:46:06Z", "detected_at":
        "2026-02-04T13:38:46.386256Z", "is_vcs_type": true, "last_detected_at": "2026-01-26T13:46:06Z",
        "last_seen_at": "2026-01-26T13:46:06Z", "data": {}, "url": "https://gitlab-01.aws-qa-gitguardian.com/romain/demo/commit/7c8a5a83a8529f3942f648e6a79ae21b08afdb07#8b00584865b28d12f057cc2064a51a05b33603f1_8_9",
        "source": {"id": 23485702, "url": "https://gitlab-01.aws-qa-gitguardian.com/romain/demo",
        "type": "gl_project", "display_name": "RomainJ / demo", "visibility": "private",
        "monitored": true, "source_criticality": "unknown", "deleted_at": null, "default_branch":
        "main"}, "regression": false, "content": 129708164, "secrets_engine_version":
        "2.155.4", "matches": [{"name": "connection_uri", "string_matched": "[REDACTED]",
        "indice_start": 128, "indice_end": 195, "pre_line_start": 8, "pre_line_end":
        8, "post_line_start": 9, "post_line_end": 9}, {"name": "scheme", "string_matched":
        "[REDACTED]", "indice_start": 128, "indice_end": 139, "pre_line_start": 8,
        "pre_line_end": 8, "post_line_start": 9, "post_line_end": 9}, {"name": "username",
        "string_matched": "[REDACTED]", "indice_start": 142, "indice_end": 150, "pre_line_start":
        8, "pre_line_end": 8, "post_line_start": 9, "post_line_end": 9}, {"name":
        "password", "string_matched": "[REDACTED]", "indice_start": 151, "indice_end":
        163, "pre_line_start": 8, "pre_line_end": 8, "post_line_start": 9, "post_line_end":
        9}, {"name": "host", "string_matched": "[REDACTED]", "indice_start": 164,
        "indice_end": 184, "pre_line_start": 8, "pre_line_end": 8, "post_line_start":
        9, "post_line_end": 9}, {"name": "database", "string_matched": "[REDACTED]",
        "indice_start": 185, "indice_end": 191, "pre_line_start": 8, "pre_line_end":
        8, "post_line_start": 9, "post_line_end": 9}, {"name": "query", "string_matched":
        "[REDACTED]", "indice_start": 192, "indice_end": 195, "pre_line_start": 8,
        "pre_line_end": 8, "post_line_start": 9, "post_line_end": 9}], "most_sensitive_match_name":
        "password", "insights": [], "filepath": "bluethroat.py", "filename": "bluethroat.py",
        "presence": "visible", "last_presence_seen_at": "2026-02-04T13:38:52.180505Z",
        "last_presence_check_at": "2026-02-04T13:38:52.180505Z", "first_presence_deleted_at":
        null, "seen_in_default_branch": null, "change_type": "context", "full_tags":
        [{"type": "FROM_HISTORICAL_SCAN", "metadata": null}]}, "has_dropped_occurrences":
        false, "tags": ["FROM_HISTORICAL_SCAN"], "public_exposure": {"source_publicly_visible":
        false, "public_incident_linked": false, "leaked_outside_perimeter": false},
        "occurrences_count": 4}, {"id": 26155836, "account": 8, "criterion": "Artifactory
        Token", "date": "2026-01-21T10:36:57.655878Z", "last_trigger_published_at":
        "2026-01-21T10:36:57.655878Z", "last_triggered_at": "2026-01-21T10:36:58.397779Z",
        "last_trigger_detected_at": "2026-01-21T10:36:58.397779Z", "hash": "sb5IGg6qhGHwZ7DbBySx1FRi53wnsGUfGCxJpN/LR7YhaCe/mfERIIoosvzjJs1k",
        "policy": 1, "ignored": false, "ignored_at": null, "ignore_reason": null,
        "ignorer": null, "resolved": false, "resolved_at": null, "resolver": null,
        "regression": false, "manual_severity_setter": null, "policy_name": "ensure_no_secrets",
        "policy_display_name": "Secrets detection", "ignorer_display_name": "none",
        "ignorer_type": "none", "resolver_display_name": "none", "resolver_type":
        "none", "manual_severity_setter_display_name": "none", "manual_severity_setter_type":
        "none", "status": "TRIGGERED", "issue_name": "Artifactory Token", "severity_rule_config":
        {"id": 7273, "gg_created_at": "2025-03-18T08:57:54.146813Z", "gg_updated_at":
        "2025-03-18T08:57:54.146816Z", "index": 12, "severity": 10, "rule": {"id":
        513, "gg_created_at": "2025-03-18T08:57:54.142453Z", "gg_updated_at": "2025-03-18T08:57:54.142456Z",
        "name": "Package manager related secret", "description": "The detector relates
        to a package manager", "json_rule": {"operator": "EQ", "arg1": {"path": "issue.secret.detector.metadata.category",
        "default": null}, "arg2": {"value": "package_registry"}}, "is_global": true,
        "scope": "private", "author": null}}, "declarative_secret_status": null, "assignee":
        null, "last_presence_check_at": null, "secret": "[REDACTED]", "severity":
        100, "authors": [{"info": "gg-tools@gitguardian.com", "name": "gg-tools"}],
        "user_permission": 7, "is_publicly_shared": true, "feedbacks_count": 0, "occurrences_presence_seen_count":
        1, "occurrences_presence_deleted_count": 0, "occurrences_presence_should_be_checked":
        null, "locations_count": 0, "sources": [{"name": "jira-data-center.do.gitguardian.dev
        / ChangingGCAM", "type": "jira_data_center_project", "path": "jira-data-center.do.gitguardian.dev
        / ChangingGCAM", "source_criticality": "unknown"}], "custom_tags": [], "vault_metadata":
        null, "is_vaulted": false, "similar_issue_count": 0, "score": 92, "displayed_occurrence":
        {"id": 238634588, "issue": 26155836, "account": 8, "kind": "RLTM", "element":
        "https://jira-data-center.do.gitguardian.dev/browse/GCAM-2?focusedCommentId=11020#comment-11020",
        "element_type": "JIRA_COMMENT", "author_name": "gg-tools", "author_info":
        "gg-tools@gitguardian.com", "value": null, "value_hash": "eQvUyYdyG+FGWUNR0idFck7aRQRzU9rBJuNONSFQNBc/68hbESiZedNRnCS6CqCj",
        "published_at": "2026-01-21T10:36:57.655878Z", "date": "2026-01-21T10:36:57.655878Z",
        "detected_at": "2026-01-21T10:36:55.769000Z", "is_vcs_type": false, "last_detected_at":
        "2026-01-21T10:47:47.663607Z", "last_seen_at": "2026-01-21T10:47:47.663607Z",
        "data": {}, "url": "https://jira-data-center.do.gitguardian.dev/browse/GCAM-2?focusedCommentId=11020#comment-11020",
        "source": {"id": 24381556, "url": "https://jira-data-center.do.gitguardian.dev/browse/GCAM/",
        "type": "jira_data_center_project", "display_name": "jira-data-center.do.gitguardian.dev
        / ChangingGCAM", "visibility": "private", "monitored": true, "source_criticality":
        "unknown", "deleted_at": null, "default_branch": null}, "regression": false,
        "content": 125057751, "secrets_engine_version": "2.155.2", "matches": [{"name":
        "apikey", "string_matched": "[REDACTED]", "indice_start": 925, "indice_end":
        998, "pre_line_start": null, "pre_line_end": null, "post_line_start": null,
        "post_line_end": null}], "most_sensitive_match_name": "apikey", "insights":
        [], "filepath": null, "filename": null, "presence": "visible", "last_presence_seen_at":
        "2026-01-21T10:47:48.180663Z", "last_presence_check_at": "2026-01-21T10:47:48.180663Z",
        "first_presence_deleted_at": null, "seen_in_default_branch": null, "change_type":
        null, "full_tags": []}, "has_dropped_occurrences": false, "tags": [], "public_exposure":
        {"source_publicly_visible": false, "public_incident_linked": false, "leaked_outside_perimeter":
        false}, "occurrences_count": 1}, {"id": 26805048, "account": 8, "criterion":
        "MongoDB URI", "date": "2025-12-14T19:04:50Z", "last_trigger_published_at":
        "2025-12-14T19:04:50Z", "last_triggered_at": "2026-02-04T13:38:51.992800Z",
        "last_trigger_detected_at": "2026-02-04T13:38:51.992800Z", "hash": "U0UpslQfYEt5UuEASStW1TUUjSlPPFgH/4x3zFEikLa/81d7feuh40iUuZt2nZY1",
        "policy": 1, "ignored": false, "ignored_at": null, "ignore_reason": null,
        "ignorer": null, "resolved": false, "resolved_at": null, "resolver": null,
        "regression": false, "manual_severity_setter": null, "policy_name": "ensure_no_secrets",
        "policy_display_name": "Secrets detection", "ignorer_display_name": "none",
        "ignorer_type": "none", "resolver_display_name": "none", "resolver_type":
        "none", "manual_severity_setter_display_name": "none", "manual_severity_setter_type":
        "none", "status": "TRIGGERED", "issue_name": "MongoDB Credentials", "severity_rule_config":
        {"id": 7276, "gg_created_at": "2025-03-18T08:57:54.146841Z", "gg_updated_at":
        "2025-03-18T08:57:54.146844Z", "index": 15, "severity": 20, "rule": {"id":
        516, "gg_created_at": "2025-03-18T08:57:54.142529Z", "gg_updated_at": "2025-03-18T08:57:54.142532Z",
        "name": "Specific Database Credentials", "description": "Specific Database
        Credentials", "json_rule": {"operator": "AND", "args": [{"operator": "EQ",
        "arg1": {"path": "issue.secret.detector.metadata.category", "default": null},
        "arg2": {"value": "data_storage"}}, {"operator": "EQ", "arg1": {"path": "issue.secret.detector.nature",
        "default": null}, "arg2": {"value": "specific"}}]}, "is_global": true, "scope":
        "private", "author": null}}, "declarative_secret_status": null, "assignee":
        null, "last_presence_check_at": null, "secret": "[REDACTED]", "severity":
        100, "authors": [{"info": "romain.jouhannet@gitguardian.com", "name": "Romain
        Jouhannet"}], "user_permission": 7, "is_publicly_shared": false, "feedbacks_count":
        0, "occurrences_presence_seen_count": 2, "occurrences_presence_deleted_count":
        0, "occurrences_presence_should_be_checked": null, "locations_count": 0, "sources":
        [{"name": "RomainJ / demo", "type": "gl_project", "path": "romain/demo", "source_criticality":
        "unknown"}], "custom_tags": [], "vault_metadata": null, "is_vaulted": false,
        "similar_issue_count": 11, "score": 49, "displayed_occurrence": {"id": 241287710,
        "issue": 26805048, "account": 8, "kind": "HIST", "element": "fd56543c0a2594907b36ab59c885bd1d536a4957",
        "element_type": "GIT_COMMIT", "author_name": "Romain Jouhannet", "author_info":
        "romain.jouhannet@gitguardian.com", "value": null, "value_hash": "MaZxnaQEbYuJeCHedgQlQjI92lEcfqKmpHQiHzv49fT/ENa8G+Sw9gDmAbwsAhz4",
        "published_at": "2025-12-14T19:04:50Z", "date": "2025-12-14T19:04:50Z", "detected_at":
        "2026-02-04T13:38:46.386256Z", "is_vcs_type": true, "last_detected_at": "2025-12-14T19:04:50Z",
        "last_seen_at": "2025-12-14T19:04:50Z", "data": {}, "url": "https://gitlab-01.aws-qa-gitguardian.com/romain/demo/commit/fd56543c0a2594907b36ab59c885bd1d536a4957#2ec5fbc02574c84a8b8e3dcae097ffd0be069994_None_8",
        "source": {"id": 23485702, "url": "https://gitlab-01.aws-qa-gitguardian.com/romain/demo",
        "type": "gl_project", "display_name": "RomainJ / demo", "visibility": "private",
        "monitored": true, "source_criticality": "unknown", "deleted_at": null, "default_branch":
        "main"}, "regression": false, "content": 129708166, "secrets_engine_version":
        "2.155.4", "matches": [{"name": "connection_uri", "string_matched": "[REDACTED]",
        "indice_start": 232, "indice_end": 323, "pre_line_start": null, "pre_line_end":
        null, "post_line_start": 8, "post_line_end": 8}, {"name": "scheme", "string_matched":
        "[REDACTED]", "indice_start": 232, "indice_end": 243, "pre_line_start": null,
        "pre_line_end": null, "post_line_start": 8, "post_line_end": 8}, {"name":
        "username", "string_matched": "[REDACTED]", "indice_start": 246, "indice_end":
        254, "pre_line_start": null, "pre_line_end": null, "post_line_start": 8, "post_line_end":
        8}, {"name": "password", "string_matched": "[REDACTED]", "indice_start": 255,
        "indice_end": 267, "pre_line_start": null, "pre_line_end": null, "post_line_start":
        8, "post_line_end": 8}, {"name": "host", "string_matched": "[REDACTED]", "indice_start":
        268, "indice_end": 288, "pre_line_start": null, "pre_line_end": null, "post_line_start":
        8, "post_line_end": 8}, {"name": "database", "string_matched": "[REDACTED]",
        "indice_start": 289, "indice_end": 295, "pre_line_start": null, "pre_line_end":
        null, "post_line_start": 8, "post_line_end": 8}, {"name": "query", "string_matched":
        "[REDACTED]", "indice_start": 296, "indice_end": 323, "pre_line_start": null,
        "pre_line_end": null, "post_line_start": 8, "post_line_end": 8}], "most_sensitive_match_name":
        "password", "insights": [], "filepath": "spinetail.py", "filename": "spinetail.py",
        "presence": "visible", "last_presence_seen_at": "2026-02-04T13:38:52.180505Z",
        "last_presence_check_at": "2026-02-04T13:38:52.180505Z", "first_presence_deleted_at":
        null, "seen_in_default_branch": null, "change_type": "addition", "full_tags":
        [{"type": "FROM_HISTORICAL_SCAN", "metadata": null}]}, "has_dropped_occurrences":
        false, "tags": ["FROM_HISTORICAL_SCAN"], "public_exposure": {"source_publicly_visible":
        false, "public_incident_linked": false, "leaked_outside_perimeter": false},
        "occurrences_count": 2}, {"id": 22515404, "account": 8, "criterion": "AWS
        Keys", "date": "2025-11-17T17:16:25Z", "last_trigger_published_at": "2025-11-17T17:16:25Z",
        "last_triggered_at": "2025-11-17T17:18:18.706440Z", "last_trigger_detected_at":
        "2025-11-17T17:18:18.706440Z", "hash": "6y4trbQi60aNmDEFQe0tJH3jke+8j18I9t2sKfgaunTYEUdZL4Qc71cZRqNcojMG",
        "policy": 1, "ignored": false, "ignored_at": null, "ignore_reason": null,
        "ignorer": null, "resolved": false, "resolved_at": null, "resolver": null,
        "regression": false, "manual_severity_setter": null, "policy_name": "ensure_no_secrets",
        "policy_display_name": "Secrets detection", "ignorer_display_name": "none",
        "ignorer_type": "none", "resolver_display_name": "none", "resolver_type":
        "none", "manual_severity_setter_display_name": "none", "manual_severity_setter_type":
        "none", "status": "TRIGGERED", "issue_name": "AWS IAM Keys", "severity_rule_config":
        {"id": 7263, "gg_created_at": "2025-03-18T08:57:54.146713Z", "gg_updated_at":
        "2025-03-18T08:57:54.146716Z", "index": 2, "severity": 10, "rule": {"id":
        503, "gg_created_at": "2025-03-18T08:57:54.142008Z", "gg_updated_at": "2025-04-02T13:15:43.307296Z",
        "name": "Valid secrets related to highly sensitive detectors", "description":
        "Secrets related to highly sensitive detectors were valid when the incident
        was discovered. You can edit this rule to create your own list of sensitive
        detectors", "json_rule": {"operator": "AND", "args": [{"operator": "EQ", "arg1":
        {"path": "issue.secret.validity_status", "default": null}, "arg2": {"value":
        "valid"}}, {"operator": "IN", "arg1": {"path": "issue.secret.detector.detector_group_name",
        "default": null}, "arg2": {"value": ["github_app_token", "ldap_credentials",
        "github_oauth_token", "googlecloud_keys", "jira_basic_auth", "python_package_index_key",
        "aws_iam_sts", "npm_token", "gitlab_token", "smtp_credentials", "github_fine_grained_pat",
        "gitlab_enterprise_token", "github_access_token", "aws_iam"]}}]}, "is_global":
        true, "scope": "any", "author": null}}, "declarative_secret_status": null,
        "assignee": null, "last_presence_check_at": null, "secret": "[REDACTED]",
        "severity": 100, "authors": [{"info": "gim+dev@gitguardian.com", "name": "dev"}],
        "user_permission": 7, "is_publicly_shared": false, "feedbacks_count": 0, "occurrences_presence_seen_count":
        1, "occurrences_presence_deleted_count": 0, "occurrences_presence_should_be_checked":
        null, "locations_count": 0, "sources": [{"name": "gim-qa-gitlabSandbox-auto
        / gim-qa-gitlabSandbox-staging", "type": "gl_project", "path": "gim-qa-gitlabsandbox-auto/gim-qa-gitlabsandbox-staging",
        "source_criticality": "unknown"}], "custom_tags": [], "vault_metadata": null,
        "is_vaulted": false, "similar_issue_count": 1, "score": 99, "displayed_occurrence":
        {"id": 226113779, "issue": 22515404, "account": 8, "kind": "RLTM", "element":
        "95c8ae28ae02f1182bfa5ae2f6cabb69fab3ece9", "element_type": "GIT_COMMIT",
        "author_name": "dev", "author_info": "gim+dev@gitguardian.com", "value": null,
        "value_hash": "yEDhOhQ6p7D5/7TcJR5YtztO3INO1WgqiWd2qPiA0XRele/bong1Td3XczdQcVM3",
        "published_at": "2025-11-17T17:16:25Z", "date": "2025-11-17T17:16:25Z", "detected_at":
        "2025-11-17T17:18:16.645938Z", "is_vcs_type": true, "last_detected_at": "2025-11-17T17:16:25Z",
        "last_seen_at": "2025-11-17T17:16:25Z", "data": {}, "url": "https://gitlab-01.aws-qa-gitguardian.com/gim-qa-gitlabsandbox-auto/gim-qa-gitlabsandbox-staging/commit/95c8ae28ae02f1182bfa5ae2f6cabb69fab3ece9#34c8dc1a12161a07003ebd2c3145185257f0cd94_0_3",
        "source": {"id": 16219056, "url": "https://gitlab-01.aws-qa-gitguardian.com/gim-qa-gitlabsandbox-auto/gim-qa-gitlabsandbox-staging",
        "type": "gl_project", "display_name": "gim-qa-gitlabSandbox-auto / gim-qa-gitlabSandbox-staging",
        "visibility": "private", "monitored": true, "source_criticality": "unknown",
        "deleted_at": null, "default_branch": "main"}, "regression": false, "content":
        105863010, "secrets_engine_version": "2.150.0", "matches": [{"name": "client_id",
        "string_matched": "[REDACTED]", "indice_start": 45, "indice_end": 65, "pre_line_start":
        null, "pre_line_end": null, "post_line_start": 2, "post_line_end": 2}, {"name":
        "client_secret", "string_matched": "[REDACTED]", "indice_start": 82, "indice_end":
        122, "pre_line_start": null, "pre_line_end": null, "post_line_start": 3, "post_line_end":
        3}], "most_sensitive_match_name": "client_secret", "insights": [], "filepath":
        "aws_api_access.yml", "filename": "aws_api_access.yml", "presence": "visible",
        "last_presence_seen_at": "2025-11-17T17:18:18.736250Z", "last_presence_check_at":
        "2025-11-17T17:18:18.736250Z", "first_presence_deleted_at": null, "seen_in_default_branch":
        false, "change_type": "addition", "full_tags": []}, "has_dropped_occurrences":
        false, "tags": [], "public_exposure": {"source_publicly_visible": false, "public_incident_linked":
        false, "leaked_outside_perimeter": false}, "occurrences_count": 1}]}'
    headers:
      access-control-expose-headers:
      - X-App-Version
      allow:
      - GET, HEAD, OPTIONS
      content-length:
      - '29694'
      content-security-policy:
      - frame-ancestors 'none'
      content-type:
      - application/json
      cross-origin-opener-policy:
      - same-origin
      date:
      - Thu, 05 Feb 2026 08:01:48 GMT
      referrer-policy:
      - strict-origin-when-cross-origin
      server:
      - istio-envoy
      strict-transport-security:
      - max-age=31536000; includeSubDomains
      vary:
      - Cookie
      x-app-version:
      - v2.384.0
      x-content-type-options:
      - nosniff
      x-envoy-upstream-service-time:
      - '545'
      x-frame-options:
      - DENY
      x-secrets-engine-version:
      - 2.155.4
      x-xss-protection:
      - 1; mode=block
    status:
      code: 200
      message: OK
version: 1
